<?xml version="1.0" encoding="utf-8"?>
<!-- Generator: Adobe Illustrator 21.0.0, SVG Export Plug-In . SVG Version: 6.00 Build 0)  -->
<svg version="1.1" id="Capa_1" xmlns="http://www.w3.org/2000/svg" xmlns:xlink="http://www.w3.org/1999/xlink" x="0px" y="0px"
	 viewBox="0 0 477.8 310.4" style="enable-background:new 0 0 477.8 310.4;" xml:space="preserve">
<style type="text/css">
	.st0{fill-rule:evenodd;clip-rule:evenodd;fill:#43525A;}
	.st1{fill-rule:evenodd;clip-rule:evenodd;fill:#AABE38;}
	.st2{fill-rule:evenodd;clip-rule:evenodd;fill:#5FB1E2;}
	.st3{fill-rule:evenodd;clip-rule:evenodd;fill:#D0EDFB;}
	.st4{fill:#43525A;}
	.st5{fill-rule:evenodd;clip-rule:evenodd;fill:#231F20;}
	.st6{fill-rule:evenodd;clip-rule:evenodd;}
	.st7{fill-rule:evenodd;clip-rule:evenodd;fill:#FFFFFF;}
	.st8{fill-rule:evenodd;clip-rule:evenodd;fill:#E4E4E4;}
	.st9{fill-rule:evenodd;clip-rule:evenodd;fill:#EC1C24;}
	.st10{fill:none;stroke:#231F20;stroke-width:0.216;stroke-miterlimit:2.6131;}
	.st11{fill-rule:evenodd;clip-rule:evenodd;fill:#0083CA;}
	.st12{fill-rule:evenodd;clip-rule:evenodd;fill:#00A6E3;}
	.st13{fill-rule:evenodd;clip-rule:evenodd;fill:#00BFE9;}
	.st14{fill:none;stroke:#FFFFFF;stroke-width:0.216;stroke-miterlimit:2.6131;}
	.st15{fill:none;stroke:#FFFFFF;stroke-width:0.5;stroke-miterlimit:2.6131;}
	.st16{fill-rule:evenodd;clip-rule:evenodd;fill:#8DD7F7;}
	.st17{fill-rule:evenodd;clip-rule:evenodd;fill:#CFE6F7;}
</style>
<g>
	<path class="st0" d="M218.9,58.5c0.4-0.7,1-0.6,1.4,0v39.7h-1.4V58.5z"/>
	<path class="st0" d="M212.7,63.4c3.1-5.3,4.8-4.9,7.3-7.2c0.5,1.5,1.6,3.3,2.6,4.3c0.9,0.9,3,2.1,3.9,4.2c1.2-4.6-2.4-7.8-2.6-8.8
		c1.6,0.6,3.5,0.1,5.1,1.7c-0.8-5.1-2.4-3.5-5.6-5.5c1.9-1.7,1.6-2.4,5.7-4.9c-3.8-0.2-5.9-0.3-7.7,2.6c-0.7-3.1-0.2-7.4,0.2-8.5
		c-2.3,1.1-3.2,4.1-3.2,8.8c-1.8-2-2.4-3.6-6.4-2.8c1.3,0.8,2.8,2.8,3.5,4.1c-2.3,0.2-4.4,1.7-6.1,3.5c2.1,0,5.1-1,6.6-0.3
		C215.3,56.2,212.4,57.1,212.7,63.4"/>
	<path class="st0" d="M236.2,38.9c0.4-0.7,1-0.6,1.4,0v39.7h-1.4V38.9z"/>
	<path class="st0" d="M230,43.8c3.1-5.3,4.8-4.9,7.3-7.2c0.5,1.5,1.6,3.3,2.6,4.3c0.9,0.9,3,2.1,3.9,4.2c1.2-4.6-2.4-7.8-2.6-8.8
		c1.6,0.6,3.5,0.1,5.1,1.7c-0.8-5.1-2.4-3.5-5.6-5.5c1.9-1.7,1.6-2.4,5.7-4.9c-3.8-0.2-5.9-0.3-7.7,2.6c-0.7-3.1-0.2-7.4,0.2-8.5
		c-2.3,1.1-3.2,4.1-3.2,8.8c-1.8-2-2.4-3.6-6.4-2.8c1.3,0.8,2.8,2.8,3.5,4.1c-2.3,0.2-4.4,1.7-6.1,3.5c2.1,0,5.1-1,6.6-0.2
		C232.6,36.6,229.7,37.5,230,43.8"/>
	<path class="st1" d="M275.6,59.3c-9.8-19.5-22.1-40-30.3-49.9c-7.3-9.4-12.5-13.4-21.6-3.9c-8.3,8.3-24.3,30.5-33.3,43.3
		c-7.5,11.6-14.9,22.1-22.2,32c-6.4,8.6-13,17-19.8,25.3c-8.3,10.1-16.2,19.1-27.5,29.3c0,0,20.1-12,38.5-32.4
		c18.4-20.4,39.7-49.3,49.9-64.5c4.7-7,17.6-25.9,23.9-29.7c0,0,1.5,0.1,5.9,4.5c2.6,2.6,5.1,5.5,7.5,8.3c3.3,3.9,7.2,8.9,11.1,14
		C266.3,46.7,274.8,58.2,275.6,59.3"/>
	<path class="st2" d="M179.9,134.1c19.1-4.9,34.1-19.5,52-38.8c29.9-32.3,60.9-57.4,97.6-60.7c-18.5-4.9-41.3,3.3-62.7,17.9
		c-22.2,15.2-36.9,33.6-55.8,52c-10.4,11.5-22.4,19.8-36.3,24.4c-7.4,2.4-12.4,2.7-19,3.6C160,136.2,171.7,136.2,179.9,134.1"/>
	<path class="st3" d="M187.3,144.7c19.1-4.9,34.6-23,53-41.9c29.5-30.3,58.6-56.3,92.5-60.7c-36.7-9-83.1,44.5-114.4,75
		C208,128.6,196,137,182.1,141.5c-7.4,2.4-12.4,2.7-19,3.6C167.4,148.8,179,146.9,187.3,144.7"/>
	<g>
		<path class="st4" d="M48.4,149.5l-8.2,6.6c-2.2-2.2-4.1-3.9-5.9-5s-4.3-1.7-7.6-1.7c-3.6,0-6.6,0.8-8.8,2.5
			c-2.3,1.6-3.4,3.7-3.4,6.3c0,2.2,1,4.2,3,5.9c2,1.7,5.3,3.6,10.1,5.6s8.4,3.9,11.1,5.7c2.6,1.8,4.8,3.7,6.5,5.8
			c1.7,2.1,3,4.4,3.8,6.7c0.8,2.4,1.2,4.8,1.2,7.5c0,6.1-2.2,11.4-6.7,15.7c-4.5,4.3-9.9,6.5-16.2,6.5c-6.2,0-11.6-1.7-16.4-5.1
			c-4.7-3.4-8.4-8.5-10.9-15.2l10.1-2.8c3.7,8.3,9.3,12.5,16.9,12.5c3.7,0,6.7-1.1,9.2-3.3c2.4-2.2,3.7-5,3.7-8.3c0-2-0.6-4-1.9-6
			c-1.3-2-2.9-3.7-4.8-5c-1.9-1.3-4.9-2.8-9.1-4.5c-4.1-1.7-7.3-3.3-9.6-4.7c-2.2-1.4-4.2-3.1-5.8-5s-2.8-3.9-3.6-5.8
			c-0.8-1.9-1.1-4-1.1-6.2c0-5.3,2.1-9.8,6.4-13.5c4.3-3.7,9.4-5.6,15.5-5.6c4,0,8.1,0.9,12.2,2.6C42.2,143.3,45.7,146,48.4,149.5z"
			/>
		<path class="st4" d="M102,167.3h10.1v47.9H102v-9.5c-4.9,7.2-11,10.8-18.3,10.8c-6.3,0-11.7-2.5-16.2-7.4c-4.5-4.9-6.7-11-6.7-18
			c0-6.7,2.3-12.5,6.8-17.5c4.5-5,9.8-7.5,15.9-7.5c3.8,0,7.3,1,10.7,3.1c3.4,2.1,6,4.7,7.8,8V167.3z M103.4,191.4
			c0-4.4-1.6-8.1-4.7-11.2c-3.1-3.1-6.9-4.7-11.3-4.7c-4.3,0-8,1.5-11.2,4.6c-3.2,3.1-4.8,6.7-4.8,10.9c0,4.5,1.5,8.4,4.6,11.5
			s6.9,4.8,11.3,4.8c4.4,0,8.1-1.6,11.3-4.7C101.8,199.5,103.4,195.7,103.4,191.4z"/>
		<path class="st4" d="M125.4,215.2v-47.9h9.9v7.9c2.9-3.2,5.5-5.6,7.9-7c2.4-1.5,5-2.2,7.9-2.2c4.3,0,8,1.4,11.1,4.3
			c3.1,2.9,4.6,6.3,4.6,10.3v34.6h-10.1v-31.6c0-2.6-0.8-4.7-2.5-6.4s-3.8-2.6-6.4-2.6c-3.4,0-6.3,1.4-8.7,4.3s-3.7,6.3-3.7,10.3v26
			H125.4z"/>
		<path class="st4" d="M182.5,153.4h10.1v13.9h10v9.2h-10v38.6h-10.1v-38.6h-7.9v-9.3h7.9V153.4z"/>
		<path class="st4" d="M251.8,167.3h10.1v47.9h-10.1v-9.5c-4.9,7.2-11,10.8-18.3,10.8c-6.3,0-11.7-2.5-16.2-7.4
			c-4.5-4.9-6.7-11-6.7-18c0-6.7,2.3-12.5,6.8-17.5c4.5-5,9.8-7.5,15.9-7.5c3.8,0,7.3,1,10.7,3.1c3.4,2.1,6,4.7,7.8,8V167.3z
			 M253.2,191.4c0-4.4-1.6-8.1-4.7-11.2c-3.1-3.1-6.9-4.7-11.3-4.7c-4.3,0-8,1.5-11.2,4.6c-3.2,3.1-4.8,6.7-4.8,10.9
			c0,4.5,1.5,8.4,4.6,11.5s6.9,4.8,11.3,4.8c4.4,0,8.1-1.6,11.3-4.7C251.6,199.5,253.2,195.7,253.2,191.4z"/>
		<path class="st4" d="M312.3,141.3h16c8,0,14.5,2,19.5,5.9c5,4,7.5,9,7.5,15.2c0,4.9-1.6,9.3-4.9,13.1c-3.2,3.8-8.3,6.5-15.2,8
			l21.5,31.6h-11.6l-20.5-30.4h-2.3v30.4h-10.1V141.3z M322.4,150.2V176c14.9,0.3,22.3-4,22.3-12.9c0-3.1-0.9-5.7-2.6-7.7
			c-1.7-2-4.1-3.3-7-4.1C332.3,150.6,328,150.2,322.4,150.2z"/>
		<path class="st4" d="M367.3,151.6c0-2.1,0.8-3.9,2.3-5.4c1.5-1.5,3.4-2.3,5.5-2.3c2.1,0,3.9,0.8,5.4,2.3c1.5,1.5,2.3,3.3,2.3,5.4
			c0,2.1-0.8,3.9-2.3,5.5s-3.3,2.3-5.4,2.3c-2.1,0-4-0.8-5.5-2.3S367.3,153.7,367.3,151.6z M370.2,167.3h10v47.9h-10V167.3z"/>
		<path class="st4" d="M398.5,153.4h10.1v13.9h10v9.2h-10v38.6h-10.1v-38.6h-7.9v-9.3h7.9V153.4z"/>
		<path class="st4" d="M467.7,167.3h10.1v47.9h-10.1v-9.5c-4.9,7.2-11,10.8-18.3,10.8c-6.3,0-11.7-2.5-16.2-7.4
			c-4.5-4.9-6.7-11-6.7-18c0-6.7,2.3-12.5,6.8-17.5c4.5-5,9.8-7.5,15.9-7.5c3.8,0,7.3,1,10.7,3.1c3.4,2.1,6,4.7,7.8,8V167.3z
			 M469.1,191.4c0-4.4-1.6-8.1-4.7-11.2c-3.1-3.1-6.9-4.7-11.3-4.7c-4.3,0-8,1.5-11.2,4.6c-3.2,3.1-4.8,6.7-4.8,10.9
			c0,4.5,1.5,8.4,4.6,11.5s6.9,4.8,11.3,4.8c4.4,0,8.1-1.6,11.3-4.7C467.5,199.5,469.1,195.7,469.1,191.4z"/>
	</g>
	<g>
		<path class="st4" d="M212.6,231.6h4.7v30.2h11.4v4.7h-16.1V231.6z"/>
		<path class="st4" d="M252.1,244h4.8v22.6h-4.8v-4.5c-2.3,3.4-5.2,5.1-8.6,5.1c-3,0-5.5-1.2-7.6-3.5c-2.1-2.3-3.2-5.2-3.2-8.5
			c0-3.2,1.1-5.9,3.2-8.3c2.1-2.4,4.6-3.6,7.5-3.6c1.8,0,3.5,0.5,5,1.5c1.6,1,2.8,2.2,3.7,3.8V244z M252.8,255.3
			c0-2.1-0.7-3.8-2.2-5.3c-1.5-1.5-3.3-2.2-5.3-2.2c-2,0-3.8,0.7-5.3,2.2c-1.5,1.5-2.3,3.2-2.3,5.2c0,2.1,0.7,4,2.2,5.5
			c1.5,1.5,3.2,2.2,5.3,2.2c2.1,0,3.8-0.7,5.3-2.2C252.1,259.2,252.8,257.4,252.8,255.3z"/>
		<path class="st4" d="M312.1,259.7v5.5c-2.4,1.4-4.8,2.1-7.1,2.1c-3.1,0-5.9-1.2-8.2-3.5c-2.4-2.3-3.5-5.1-3.5-8.2
			c0-3.5,1.2-6.4,3.5-8.7c2.3-2.3,5.3-3.5,8.8-3.5c2.1,0,4.3,0.5,6.5,1.6v5.3c-2.4-1.5-4.7-2.3-6.8-2.3c-2,0-3.7,0.7-5.2,2.1
			c-1.5,1.4-2.2,3-2.2,4.9c0,2.1,0.7,3.9,2.1,5.3c1.4,1.4,3.1,2.2,5.1,2.2C307.1,262.4,309.4,261.5,312.1,259.7z"/>
		<path class="st4" d="M335.8,244h4.8v22.6h-4.8v-4.5c-2.3,3.4-5.2,5.1-8.6,5.1c-3,0-5.5-1.2-7.6-3.5c-2.1-2.3-3.2-5.2-3.2-8.5
			c0-3.2,1.1-5.9,3.2-8.3c2.1-2.4,4.6-3.6,7.5-3.6c1.8,0,3.5,0.5,5,1.5c1.6,1,2.8,2.2,3.7,3.8V244z M336.4,255.3
			c0-2.1-0.7-3.8-2.2-5.3c-1.5-1.5-3.3-2.2-5.3-2.2c-2,0-3.8,0.7-5.3,2.2c-1.5,1.5-2.3,3.2-2.3,5.2c0,2.1,0.7,4,2.2,5.5
			c1.5,1.5,3.2,2.2,5.3,2.2c2.1,0,3.8-0.7,5.3-2.2C335.7,259.2,336.4,257.4,336.4,255.3z"/>
		<path class="st4" d="M361.4,246.6l-3.2,2.8c-0.8-0.6-1.5-1-2.1-1.3s-1.3-0.5-2.1-0.5c-1.9,0-2.9,0.7-2.9,2.1c0,1,1.2,2,3.7,3
			c2.5,1,4.2,2,5.3,3.2c1.1,1.2,1.6,2.5,1.6,4.2c0,1.9-0.8,3.6-2.3,5c-1.6,1.4-3.4,2.1-5.5,2.1c-3.2,0-5.8-1.5-7.9-4.4l3.8-1.8
			c1.3,1.3,2.7,1.9,4.1,1.9c1,0,1.9-0.3,2.6-0.8c0.7-0.5,1.1-1.2,1.1-1.9c0-1.3-1.3-2.4-3.9-3.4c-2.6-1-4.4-2-5.4-3.1
			c-1-1-1.5-2.3-1.5-3.8c0-1.9,0.7-3.5,2.1-4.7s3.2-1.9,5.3-1.9C356.3,243.3,358.7,244.4,361.4,246.6z"/>
		<path class="st4" d="M383.4,259.7v5.5c-2.4,1.4-4.8,2.1-7.1,2.1c-3.1,0-5.9-1.2-8.2-3.5c-2.4-2.3-3.5-5.1-3.5-8.2
			c0-3.5,1.2-6.4,3.5-8.7c2.3-2.3,5.3-3.5,8.8-3.5c2.1,0,4.3,0.5,6.5,1.6v5.3c-2.4-1.5-4.7-2.3-6.8-2.3c-2,0-3.7,0.7-5.2,2.1
			c-1.5,1.4-2.2,3-2.2,4.9c0,2.1,0.7,3.9,2.1,5.3c1.4,1.4,3.1,2.2,5.1,2.2C378.4,262.4,380.8,261.5,383.4,259.7z"/>
		<path class="st4" d="M407.1,244h4.8v22.6h-4.8v-4.5c-2.3,3.4-5.2,5.1-8.6,5.1c-3,0-5.5-1.2-7.6-3.5c-2.1-2.3-3.2-5.2-3.2-8.5
			c0-3.2,1.1-5.9,3.2-8.3c2.1-2.4,4.6-3.6,7.5-3.6c1.8,0,3.5,0.5,5,1.5c1.6,1,2.8,2.2,3.7,3.8V244z M407.8,255.3
			c0-2.1-0.7-3.8-2.2-5.3c-1.5-1.5-3.3-2.2-5.3-2.2c-2,0-3.8,0.7-5.3,2.2c-1.5,1.5-2.3,3.2-2.3,5.2c0,2.1,0.7,4,2.2,5.5
			c1.5,1.5,3.2,2.2,5.3,2.2c2.1,0,3.8-0.7,5.3-2.2C407,259.2,407.8,257.4,407.8,255.3z"/>
		<path class="st4" d="M438,231h4.7v35.6h-4.7v-4.7c-2.3,3.6-5.2,5.3-8.8,5.3c-2.9,0-5.5-1.2-7.6-3.5c-2.1-2.4-3.2-5.2-3.2-8.5
			c0-3.2,1.1-6,3.2-8.4c2.1-2.3,4.7-3.5,7.7-3.5c1.8,0,3.4,0.5,5,1.5c1.5,1,2.8,2.3,3.7,3.9V231z M438.6,255.2c0-2-0.7-3.8-2.2-5.3
			c-1.5-1.5-3.3-2.2-5.3-2.2c-2.1,0-3.9,0.7-5.4,2.2c-1.5,1.5-2.2,3.2-2.2,5.3c0,2,0.8,3.8,2.3,5.3c1.5,1.5,3.3,2.3,5.3,2.3
			c2.1,0,3.9-0.7,5.4-2.2C437.8,259.1,438.6,257.3,438.6,255.2z"/>
		<path class="st4" d="M469.1,244h4.8v22.6h-4.8v-4.5c-2.3,3.4-5.2,5.1-8.6,5.1c-3,0-5.5-1.2-7.6-3.5c-2.1-2.3-3.2-5.2-3.2-8.5
			c0-3.2,1.1-5.9,3.2-8.3c2.1-2.4,4.6-3.6,7.5-3.6c1.8,0,3.5,0.5,5,1.5c1.6,1,2.8,2.2,3.7,3.8V244z M469.8,255.3
			c0-2.1-0.7-3.8-2.2-5.3c-1.5-1.5-3.3-2.2-5.3-2.2c-2,0-3.8,0.7-5.3,2.2c-1.5,1.5-2.3,3.2-2.3,5.2c0,2.1,0.7,4,2.2,5.5
			c1.5,1.5,3.2,2.2,5.3,2.2c2.1,0,3.8-0.7,5.3-2.2C469,259.2,469.8,257.4,469.8,255.3z"/>
	</g>
	<polygon class="st5" points="281.1,194.6 281.9,187.7 274.4,249.1 	"/>
	<path class="st6" d="M297.2,86.5c-0.5-0.6-1.1-1.4-1.1-2.2c-0.3,0.7-3.2,3-3.2,3.3c0.4,0,0.4-0.1,0.9-0.1
		C294.9,87.2,295.1,87.3,297.2,86.5"/>
	<polygon class="st7" points="307.5,246.1 307.3,254.9 307.7,254.8 308,245.9 	"/>
	<path class="st6" d="M291.7,75.1c0,0,3.7-1.2,6.1-0.3c1.2,1.1,1.1,3,1.1,4.3c0,1,0.2,1.5,0.1,1.6c-0.4,0.1-1-1.4-1-1.8
		c-0.2-0.9-0.2-1.2-0.6-2C296.5,76,294.8,75.1,291.7,75.1"/>
	<path class="st6" d="M334.1,81.7c0.6,0,0.5-0.2,0.9,0.1c0.7,0.6,0.8,0.4,0.7,0.1c0,0,0,0,0,0c0-0.1-0.1-0.1-0.1-0.2
		c-0.4-0.7-1.6-1.4-2.3-1.7c-1-0.6-2.2-1-2.7-1.2c-1.6-0.5-13.1-2.4-13.4-2.7c-0.5-0.1-0.9-0.2-1.3-0.2c-2.5-0.3-4.2-0.6-5-0.7
		c-0.9-0.2-1.9-0.2-2.5-0.6c-0.8-0.6-1.6-0.8-2.6-0.4c-0.8,0.3-1.5-0.8-2.4-1.2c-2.1-0.6-4.5-1.1-6.9-0.9c-0.1,0-0.4-0.1-0.5-0.1
		c-0.6,0.6-1.5,0.3-2.3-0.2c-0.8,0.1-2.2-0.5-3.3-0.3c-1.7,0.2-2.2,0.2-3.6,0.2l-0.5,0.8c-0.5,0.8,1.5,0.9,1.9,0.9
		c2.8,0.4,6,1.3,8.8,2.5c1.8,0.8,1.8,1.3,1.1,3.1c0,0,0,0.5,0.2,1c0.8,1.5,1.2,4.2-0.1,6.3c3-1.5,6.6-2.2,10.2-1.6
		c1.3,0.2,2.1,0.1,3.5-0.1c1.2-0.2,2.6-0.4,3.5-0.7c0.4-0.1,1.1-0.4,1.4-0.6c0.5-0.2,0.9-0.5,1.4-0.5C324,82.8,328.3,83,334.1,81.7"
		/>
	<path class="st8" d="M303.9,78.2l1,0l1.4,0l-0.2-0.4l0.7-0.2l-1.8-0.5C304.5,77.4,304.2,77.7,303.9,78.2"/>
	<path class="st6" d="M304.9,78.3c-0.4,0.8-0.3,1.5,0.7,1.8l-0.4-0.9l0.4,0l0.9-0.2l0,1.1c0.3-0.2,0.7-0.3,0.7-0.9V78l0.3,0.6
		l0.2-0.5c-0.3-0.7-1.3-1.4-2.7-1l1.8,0.5l-0.7,0.2l0.2,0.4L304.9,78.3z"/>
	<polygon class="st6" points="305.6,80 306.5,80 306.7,79.8 306.4,78.9 305.3,78.5 305.6,79.2 305.1,79.2 	"/>
	<path class="st9" d="M307.6,78h-0.4v1.1c0,0.9-0.9,0.9-1.6,0.9c-0.9-0.2-1.1-0.9-0.7-1.8l-1,0c-0.7,1.5,0.6,3,1.9,3
		c1.6,0,2.2-1.6,2.1-2.5C307.8,78.3,307.8,78.3,307.6,78"/>
	<path class="st6" d="M299.4,68c4.3-0.5,6.7-0.1,10.7,1.4c0,0-0.9,0.4-2.3,0.4c-1.3,0-2.6-0.4-3.6-0.4c-1,0-2.6-0.1-4-0.1
		c-0.9,0-1.3,0-1.8-0.1C297.5,69.2,298.6,68.1,299.4,68z"/>
	<path class="st10" d="M299.4,68c4.3-0.5,6.7-0.1,10.7,1.4c0,0-0.9,0.4-2.3,0.4c-1.3,0-2.6-0.4-3.6-0.4c-1,0-2.6-0.1-4-0.1
		c-0.9,0-1.3,0-1.8-0.1C297.5,69.2,298.6,68.1,299.4,68z"/>
	<path class="st11" d="M295,102c-6.1,17.2-23.3,18.1-20.6,37c0.7,4.9,2.1,9.8,3.3,14.6c0.4,1.6,0.2,1.4,0.8,3.1l3.9,11l8.5-11.8
		c2.6-3.6,4.9-7.1,7-11.1c6.7-12.7,10.7-23,10.4-36.6c0.9-6.5-5.9-8.5-11.2-8.2C295.3,100.2,295,102,295,102"/>
	<path class="st12" d="M269.3,279.3c0,0-5.3,10.8-5.5,11.8c-0.2,1.1,1,0.9,1,0.9s-1.7,4.2-2,5.3c-0.3,1.1,1.4-0.1,1.4-0.1l-1.6,2.7
		c-0.4,0.6,2-1.7,1.3,0.5l-0.9,2.9c0,0-0.4,2.8,0.3,2.1l1.3-1.1c0,0-1.6,1.1-0.7,2.9c0.9,1.8,2,3.2,2.7,3.1c0.7-0.1,0.9-0.3,1.7-1.3
		c0.8-1,2.2-1.1,2.2-1.8c0.1-0.7-1-2.2-1-2.2s1.9,1.7,1.9,0.6l-0.1-3.4c0,0,1.3,1.3,1.4-0.5c0-1.8-0.8-2.8-0.8-2.8s1.7,1.8,1.4-0.1
		l-0.8-4.1l-0.6-1.2l1.6,0.3c0,0-0.1-1.6-1.1-4.5c-1-2.9-1.2-5.2-2.2-7.7C269.3,279.3,269.3,279.3,269.3,279.3"/>
	<path class="st12" d="M270.7,264.8c-0.8,13.2-4.5,29.7-3.3,29.5l0.5-0.1c0,0,3.2-28.9,4.1-31.6c0.5-1.5,1.4-14.7,2.7-13
		c1.9,2.4-0.7,16.4,1.9,3.3c0.6-2.3,0.8-5.6,1.4-3.8c0.6,1.8,0.4,4,0.4,4l-0.9-9.3l0.3-4.3l3,2l-2.6-6.5l2.9,1.8l-2.9-6.5l3.2,1.9
		l-2.7-4.3l1.5,0.2l-1.5-5.7l1.4,0.5l-1-7.1l1.9,0.7c0,0-0.2-5.1-1-6.6c-0.7-1.5-1-1.7-1-1.7s2.7,2.3,2.8,1.4c0.2-2.5-1-6.2-0.7-9.4
		l2,3.1l-1.6-4.8l1.7,0.3l-1-4.5l1.3,0.9l-0.9-6.2l1.8,1l-1.9-5.4l1.3-10.1l2.9-11.4l-3.1,6.5c-2.9,6.2-4.4-4-5.2-7.9
		c0-0.1-0.2-0.4-0.3-0.7c-0.5-1.3-1.7,1.9-2.9,4.7c-1.6,3.8-3.4,5.9-3.4,5.9c-0.1,0,0.7,2.3,0.6,8.2c-0.1,5.9-1.3,15.1-0.7,14.7
		c2.1-1.4,2.1-1.4,2.1-1.4l-2.2,3.1l-0.1,6.2l2.5-2.7l-2.5,4.8l0.1,10.9l1.8-1.4l-2,3.3l-0.5,13l-0.4,8.3l2.4-0.6l-2.8,4.1
		c0.2,2.1-1,8.9-0.6,8.1l2-3.6L270.7,264.8z"/>
	<path class="st13" d="M295.4,87.9c0,0-1.7,0.6-0.4,0.7c1.4-0.3,2.9-0.8,4.3-1.5c1.4-0.7,2.6-1.3,4.4-1.4c3.7-0.2,7.2,0.7,10.6-0.7
		c0.7-0.3,0.9-0.9,0.7-0.8l-1.1,0.4c-0.9,0.2-2.1,0.4-3.1,0.5c-2.4,0.4-3.3-0.2-5.8-0.1c-1,0.1-2.4,0.2-3.4,0.5l-4.4,1.8L295.4,87.9
		z"/>
	<path class="st13" d="M287.1,70.1c4.2-1,9-1.8,10.8-1.9c0,0.2-0.6,0.7-0.5,1c0.2,0.3,2.2,0.8,2.9,0.6c1.9,0.1,2.7-0.3,4.1,0.1
		c2.2,0.3,3.5,0.8,6.2-0.2c1.3,0.6,3.9,2.8,4.9,4c1,1.2,0.3,0.4,1,1.1c1.5,1.2-0.4,0.7-1,0.6c-0.6-0.1-2.7-0.2-2.7-0.2
		s-3-0.6-3.7-0.7c-0.7-0.1-1-1.3-1.9-1.1c-2.2,0.5-1.4,0.4-3-0.4c-2.6-1.3-4.2-1-7.2-1.5c-1.6-0.3-1.2,1.3-3.5-0.1
		c-0.6-0.1-2.6-0.3-3.4-0.4c0,0-3.8,0.8-3.3-0.3L287.1,70.1z"/>
	<path class="st13" d="M297.3,79.3c-0.9,1.5-1.1,3.1-1,4.7c0.1,1.5,1.4,2.8,1.6,2.4c0.2-0.4,0.7-1.9,0.6-3.8
		C298.5,80.6,297.3,79.3,297.3,79.3"/>
	<path class="st11" d="M272.7,169.3l4.5-9.9c2-4.5-16.6-27.2,4.3-47c0.9-1,1.6-1.8,1.1-3.9c-2.6-9.4-6.8-17.6-8.3-15.9
		c-2.7,6.9-5.7,13-7.9,19.4c-2.2,6.5-3.6,16.2-3.1,25.3C263.8,148.8,268.4,159.2,272.7,169.3"/>
	<path class="st13" d="M315,84.1c0.2,0.3,0.3-0.2,0.4,0.8c-0.2,0.9-0.3,1.1-0.6,1.8c-0.6,1.1-1.1,2.6-1.5,4.2
		c-1.1,4.9-0.8,8.8,0,13.7c0.5,3.3,0.9,6,0.3,9.3c-1.5,8.2-5.7,17.3-8.6,23c-1.3,2.6-2.6,5-4.4,7.3l-3.4,4.2c0,0,8.6-15.1,10.8-20.8
		c2.4-6.4,5.6-13.4,4.4-21.6c-1.1-5.4-1.5-7.6-0.7-13c0.6-3.9,2.1-6.7,2.9-7.9C314.8,84.4,315,84.1,315,84.1"/>
	<path class="st13" d="M284.3,76.9c-2.7,2.7-6.5,9.9-7.8,13.7c-0.2,0.5-0.3,1.3,0.2,1.7c0.3,0.2,0.8,0.2,0.9,0c0,0-0.4-0.5-0.3-0.8
		c2.2-5.8,4.5-10.5,8-14.2c0.2-0.3,0,0,0.3-0.7C289.7,71.2,286.1,74.8,284.3,76.9"/>
	<path class="st11" d="M278.1,280.7c0.4,0.1,2.8,5.3,3.4,8.3c0.5,3,0.9,4.8,0.9,4.8s-2.5-2.6-2.2-1.7l1.4,3.2l0.6,3.3
		c0.2,1.4-2.1-0.7-2.1-0.7s1.4,2,1.5,2.8c0,0.8-1,3.2-1,3.2l-1.5-0.5c0,0,1,0.9,0.4,2c-0.7,1-2.1,1.6-3.1,1.8
		c-1.1,0.1-1.9-2.1-1.9-2.1s-3-12.9,0.5-19.3C275.2,285.1,277.1,280.4,278.1,280.7"/>
	<path class="st11" d="M277.6,284.8c0.5-1.6,1.2-15,1.3-19.6c0-1.5,0.1-2.5,0.1-2.5c0.2-1.5-0.2-12,0.9-13c2.5-2.2,3.2,7.8,2-4.8
		l0-4.4l0.8,1l-0.7-5.5l0.7,0.7l-0.6-7.9l0.8,0.2l-0.9-5.7l0.7,0.5l-0.7-7.1l1,0.7l-0.7-6.6c-0.2-1.6-0.6-1.7-0.6-1.7
		s1.5,2.3,1.5,1.4l-0.6-8.4l1,1.2l-0.7-4.7l0.8,0.2l-0.7-3.5l1.1,0l-0.9-6.2l1.8,1l-1.9-5.4c0.9-6,3-13.6,6.2-24
		c1.5-4-0.2-0.3-3.3,4.4c-1.2,1.6-2,2.7-2.7,3.5c-0.3,0.4-1.3,1.8-1.4,1.4l-2.9-8.1c-0.2-1.4-0.3,4.5-0.9,10.6
		c-0.3,2.8-1.7,23-1.1,22.3c1-1.4,1-1.4,1-1.4l-1,3.1l0.1,6.2l1.2-2.8l-1.1,4.9l-0.7,10.9l0.9-1.4l-0.9,3.4l0.2,13l0.1,8.3l2.3-0.7
		c0,0-2.5,3.2-2.4,5.2c0.3,3.7-0.9,10.8,0.9,3.5L277.6,284.8z"/>
	<polygon class="st7" points="281.6,169.9 280.8,177.6 278.8,238.1 277.3,298.2 280.5,206.7 	"/>
	<polygon class="st14" points="281.6,169.9 280.8,177.6 278.8,238.1 277.3,298.2 280.5,206.7 	"/>
	<path class="st8" d="M269.4,280l-2.2,23.3L269.4,280z"/>
	<path class="st15" d="M269.4,280l-2.2,23.3L269.4,280z"/>
	<path class="st16" d="M276.2,164.4l-2.4,86.8L276.2,164.4z"/>
	<path class="st14" d="M276.2,164.4l-2.4,86.8L276.2,164.4z"/>
	<path class="st17" d="M156.6,130.4c0.2-4-4-15.6-8-9.9C145.4,125.2,154.6,129.6,156.6,130.4"/>
	<path class="st17" d="M156.9,137.6c-2.3-3.7-13.1-11.8-13.3-4.2C143.4,139.6,154.5,138.1,156.9,137.6"/>
	<path class="st17" d="M161.6,130.5c3.1-2.6,8.8-13.5,1.9-12.6C157.9,118.6,160.8,128.4,161.6,130.5"/>
</g>
</svg>
