<?xml version="1.0" encoding="utf-8"?>
<!-- Generator: Adobe Illustrator 21.0.0, SVG Export Plug-In . SVG Version: 6.00 Build 0)  -->
<svg version="1.1" id="Capa_1" xmlns="http://www.w3.org/2000/svg" xmlns:xlink="http://www.w3.org/1999/xlink" x="0px" y="0px"
	 viewBox="0 0 53.2 52.9" style="enable-background:new 0 0 53.2 52.9;" xml:space="preserve">
<style type="text/css">
	.st0{fill:#666666;}
</style>
<g>
	<path class="st0" d="M0,50c0.5-0.6,1.2-0.7,1.9-0.7c2.3,0,4.7,0,7.1,0c0.5,0,1-0.1,1.4-0.5c1.6-1.2,3.2-2.5,4.7-3.7
		c0.4-0.3,0.9-0.5,1.4-0.5c0.9,0,1.7,0,2.6,0c0-6.6,0-13.2,0-19.8c-0.8,0-1.6,0-2.4,0c-0.4,1.2-1.1,2.3-2.3,2.8
		c-0.7,0.3-1.4,0.5-2.2,0.4c-1.8-0.3-3.3-1.7-3.5-3.4c-0.3-2.1,0.7-3.6,3.2-4.8c0-0.2,0.1-0.5,0.1-0.7c0-2,0.1-4,0-6
		c-0.1-2.2,1.6-3.7,3-4.5c0.3-0.1,0.6-0.1,0.9-0.1c1.3,0,2.6,0,4.1,0c-1.5-1.5-2.6-2.9-1.9-5c0.4-1.3,1.4-2.1,2.6-2.7
		c2.4-1.1,4.5-0.2,6.2,3c0.5,0,1,0,1.5,0c0.2,0,0.5,0,0.8,0c0.4,0.2,0.8,0.6,0.7,1s-0.4,0.7-0.8,0.7s-0.8,0-1.2,0
		c-0.3,0-0.7,0-1.1,0c0,1,0,1.8,0,2.6c0,0.3,0,0.6,0,0.9c0,0.8-0.3,1.1-1.2,1.1c-0.2,0-0.4,0-0.7,0c-0.2,0.5-0.2,0.9,0.2,1.1
		c1.2,0.7,2.4,1.4,3.7,2c1.4,0.7,2.9,1.2,4.5,1.5c0.1,0,0.2,0,0.5,0c-0.2-0.7-0.4-1.3-0.5-1.9c-0.1-0.3-0.1-0.7,0.1-1
		c0.3-0.5,0.8-0.5,1.1,0c0.2,0.2,0.3,0.6,0.3,0.9c1,3.7,2,7.4,3,11.2c1,3.6,1.9,7.1,2.9,10.7c0.2,0.6,0.3,1.2,0.5,1.8
		c0.1,0.3,0,0.6-0.1,0.9c-0.2,0.5-0.7,0.5-1.1,0.1c-0.2-0.2-0.3-0.4-0.3-0.7c-1.4-5.3-2.8-10.6-4.3-15.9c-0.1-0.5-0.3-1-0.5-1.6
		c-2.8-0.2-5.5-0.9-8.1-2.1c0,0.4-0.1,0.6-0.1,0.8c0,1.3,0,2.6,0,3.9c0,0.7,0.2,1.1,0.7,1.4c1.7,1.4,3.4,2.8,5.1,4.1
		c0.6,0.5,0.9,1,0.9,1.8c0,2.2,0,4.5,0,6.7c0,0.6,0.2,1,0.7,1.4c0.7,0.4,1.3,0.9,1.9,1.4c0.6,0.4,1.2,0.9,1.2,1.8
		c1.6,0.3,3.1-0.1,4.6-0.6c3.2-1.1,6.4-2.2,9.6-3.3c0.2-0.1,0.3-0.1,0.6-0.2c0.2,0.3,0.5,0.6,0.5,0.9c0,0.5-0.5,0.7-0.9,0.9
		c-2.7,0.9-5.5,1.9-8.2,2.8c-0.3,0.1-0.7,0.2-1,0.4c-1.8,0.8-3.7,1-5.7,0.8c-1.2-0.1-2.5,0-3.7-0.1c-0.5,0-0.7,0.2-1,0.6
		c-0.6,1-1.2,2-1.8,3.1c-0.4,0.7-0.9,1-1.7,1c-3.8,0-7.6,0-11.4,0c-0.7,0-1.2,0.2-1.7,0.6c-1.5,1.2-3,2.3-4.5,3.5
		C10.5,50.9,10,51,9.3,51c-2.3,0-4.7,0-7.1,0c-0.8,0-1.5,0-2.2-0.5C0,50.3,0,50.2,0,50z M25.2,5.4c-1.9,0-3.7-0.1-5.6,0
		c0.3,0.9,0.7,1.6,1.6,1.8c0.5,0.1,0.8,0.4,0.9,0.9C22,9,21,10,20.1,10c-1.2,0-2.4,0-3.6,0c-1.6,0-3,1.4-3,3c0,2.1,0,4.1,0,6.2
		c0,0.2,0,0.4,0.1,0.7c1.7,0.5,2.8,1.6,3.3,3.3c1,0,1.8,0,2.7,0c0.9,0,1.2,0.3,1.3,1.3c0,0.2,0,0.4,0,0.6c0,6.2,0,12.4,0,18.6
		c0,0.3,0,0.6,0.1,0.8c1.8,0,3.6,0,5.3,0c-0.1-0.2-0.3-0.4-0.5-0.5c-0.8-0.4-1.5-0.8-2.3-1.2c-0.6-0.3-0.9-0.7-0.8-1.4
		c0.1-1.1,0.2-2.2,0.3-3.2c0.2-1.9,0.3-3.8,0.5-5.7c0.2-2,0.3-3.9,0.6-5.9c0.1-0.6,0.5-1.1,0.7-1.6c0.2-0.3,0.5-0.4,0.8-0.2
		c0.3,0.2,0.6,0.5,0.4,1c-0.1,0.3-0.2,0.5-0.3,0.8c-0.4,0.8-0.4,0.9,0.3,1.5c0.9,0.8,1.8,1.6,2.8,2.3c0.6,0.5,0.8,1,0.8,1.7
		c0,2.3,0,4.6,0,6.9c0,0.3,0,0.5,0.1,0.8c2,0,4,0,6.1,0c-0.3-0.3-0.4-0.4-0.6-0.6c-0.7-0.5-1.5-1.1-2.3-1.6c-0.7-0.5-1-1.1-1-1.9
		c0-2.2,0-4.5,0-6.7c0-0.6-0.1-1-0.6-1.3c-1.7-1.4-3.4-2.8-5.1-4.1c-0.6-0.5-0.9-1.1-0.9-1.9c0-2.6,0-5.2,0-7.7
		c0-0.7-0.1-1.3-0.8-1.6c-1.3-0.6-1.3-1.8-1.2-3c0.1-0.6,0.4-0.9,1-0.9c0.3,0,0.6,0,1-0.1C25.2,7.5,25.2,6.6,25.2,5.4z M30.6,41.6
		c-0.5,0-0.7,0-1,0c-1.5,0-1.7-0.2-1.7-1.7c0-2.3,0-4.6,0.1-6.9c0-0.7-0.2-1.2-0.7-1.6s-1-0.9-1.5-1.3c-0.2-0.1-0.3-0.2-0.6-0.3
		c-0.3,4-0.7,7.9-1,11.9c0.6,0.3,1.2,0.6,1.8,0.9c1.1,0.5,2.1,1,2.6,2.1c0,0,0.1,0,0.3,0.1C29.4,43.7,29.9,42.8,30.6,41.6z
		 M12.7,21.5c-1.5,0-2.5,1.1-2.6,2.5c0,1.4,1.2,2.6,2.6,2.6s2.5-1.2,2.5-2.6C15.3,22.7,14.1,21.5,12.7,21.5z M34.4,17.3
		c0-0.9-0.1-1-0.8-1.1c-1.8-0.2-3.5-0.8-5.1-1.5c-0.5-0.2-1.1-0.5-1.7-0.8c0,0.5,0,0.8,0,1.2C29.2,16.3,31.7,17,34.4,17.3z
		 M25.1,3.9c-0.9-1.5-1.7-2-3.1-1.8c-1,0.2-1.8,0.7-2.4,1.8C21.5,3.9,23.2,3.9,25.1,3.9z"/>
	<path class="st0" d="M30.4,52.9c-0.5-1.1-0.3-1.5,0.9-1.5c1.1,0.1,2-0.2,2.8-1c1.3-1.3,2.8-2.4,4.1-3.7c0.6-0.6,1.2-0.7,2-0.4
		c1.5,0.5,3.1,1,4.6,1.5c0.6,0.2,1,0.1,1.4-0.4c1.1-1.1,2.2-2.2,3.3-3.3c0.9-1,2-0.7,3.1-0.6c0.2,0,0.4,0.3,0.6,0.5
		c-0.3,0.8-0.5,1.1-1.2,1c-1-0.1-1.7,0.3-2.3,1c-0.8,0.9-1.8,1.8-2.7,2.7c-0.7,0.8-1.4,1-2.4,0.6c-1.7-0.6-3.4-1.1-5.2-1.6
		c-0.2,0.2-0.5,0.4-0.8,0.6c-1.5,1.4-3,2.7-4.5,4.1c-0.2,0.1-0.2,0.3-0.3,0.5C32.7,52.9,31.5,52.9,30.4,52.9z"/>
	<path class="st0" d="M9.9,40.4c-0.6-0.7-1.2-1.3-1.7-1.9c-0.5-0.6-1-1.2-1.6-1.9c-0.5,0.5-0.9,0.8-1.2,1.2
		c-0.9,0.9-1.7,1.7-2.5,2.6c-0.6,0.5-0.8,0.6-1.2,0.3c-0.3-0.3-0.4-0.6-0.2-1c0.2-0.2,0.3-0.4,0.5-0.6c2.3-2.3,4.6-4.6,6.9-7
		C9.1,32,9.1,32,9.2,31.9c0.7-0.7,1.1-0.7,1.7,0.1c1,1.1,1.9,2.3,2.9,3.4c1.3,1.5,2.6,3.1,3.9,4.6c0.6,0.7,0.5,1-0.5,1.6
		c-1.5-1.2-2.5-3-4-4.4C12.2,38.3,11.1,39.3,9.9,40.4z M10,38.2c0.8-0.8,1.5-1.5,2.3-2.2c-0.9-0.9-1.5-1.9-2.4-2.7
		c-0.8,0.8-1.5,1.5-2.2,2.2C8.5,36.4,9.2,37.3,10,38.2z"/>
	<path class="st0" d="M39.3,8.6c0.1-2.8,2.5-5.1,5.3-5s5.1,2.5,5,5.2c-0.1,2.9-2.4,5.1-5.2,5.1C41.5,13.8,39.2,11.4,39.3,8.6z
		 M44.4,13c2.3,0,4.4-1.9,4.3-4.3c0-2.8-2.4-4.3-4.2-4.3c-2.4,0-4.4,2-4.4,4.2C40.1,11.1,42,13,44.4,13z"/>
	<path class="st0" d="M44.4,0c0.6,0.7,0.6,1.3,0,2.1c-0.2-0.3-0.4-0.5-0.5-0.7C43.8,0.8,43.9,0.5,44.4,0z"/>
	<path class="st0" d="M44.3,17.5c-0.2-0.3-0.3-0.5-0.4-0.7c0-0.3,0-0.7,0.1-1c0-0.1,0.3-0.2,0.4-0.3c0.1,0,0.3,0.1,0.3,0.2
		C45,16.2,44.8,17,44.3,17.5z"/>
	<path class="st0" d="M52.5,11.9c-0.6,0.6-0.8,0.6-1.9-0.2C50.8,10.9,51.4,11,52.5,11.9z"/>
	<path class="st0" d="M40.7,1.1c0.2-0.2,0.4-0.3,0.6-0.5c0.9,0.9,0.9,1.4,0.3,2C41.3,2.1,41.1,1.7,40.7,1.1z"/>
	<path class="st0" d="M38.1,11.7c-0.3,0.2-0.7,0.4-1.1,0.5c-0.2,0.1-0.4-0.1-0.6-0.2c0.1-0.2,0.2-0.5,0.3-0.6
		c0.2-0.2,0.5-0.3,0.7-0.4C37.9,10.9,38.2,11.1,38.1,11.7z"/>
	<path class="st0" d="M37.8,6.4c-0.4-0.2-0.8-0.3-1.1-0.6c-0.1-0.1-0.2-0.4-0.2-0.5c0.1-0.1,0.4-0.2,0.5-0.2
		c0.3,0.1,0.6,0.2,0.9,0.4C38.3,5.8,38.2,6.1,37.8,6.4z"/>
	<path class="st0" d="M48.9,14c0.2-0.6,0.5-0.7,0.8-0.5s0.5,0.5,0.7,0.7c0.1,0.1,0.1,0.5,0,0.6s-0.4,0.1-0.6,0
		C49.5,14.6,49.2,14.3,48.9,14z"/>
	<path class="st0" d="M41,16.8c-0.1-0.2-0.3-0.5-0.2-0.7c0.2-0.4,0.4-0.8,0.7-1.1c0.2-0.2,0.6,0.1,0.5,0.4
		C41.8,15.9,41.8,16.5,41,16.8z"/>
	<path class="st0" d="M39.3,4.2c-0.5-0.5-0.9-0.9-1.3-1.3c0.4-0.6,0.6-0.5,1-0.2C39.7,3.3,39.8,3.5,39.3,4.2z"/>
	<path class="st0" d="M47.9,16.3c-0.1,0.2-0.2,0.4-0.3,0.4c-0.2,0-0.4,0-0.5-0.1c-0.2-0.3-0.4-0.7-0.5-1.1c0-0.1,0.1-0.3,0.3-0.4
		c0.1-0.1,0.3,0,0.4,0.1C47.6,15.5,47.8,15.9,47.9,16.3z"/>
	<path class="st0" d="M52.5,5.7c-0.3,0.5-0.8,0.6-1.3,0.8c-0.1,0-0.3-0.1-0.5-0.2c-0.1,0,0-0.2,0-0.3c0.2-0.3,1.1-0.7,1.5-0.6
		C52.3,5.3,52.4,5.5,52.5,5.7z"/>
	<path class="st0" d="M48.2,1c-0.3,0.6-0.6,1.1-0.8,1.7c-0.3-0.2-0.4-0.4-0.7-0.6c0.3-0.4,0.6-0.9,0.9-1.3C47.6,0.8,47.8,0.9,48.2,1
		z"/>
	<path class="st0" d="M50.2,2.3c0.5,0.8,0.5,0.8-0.7,1.8c-0.2-0.1-0.3-0.3-0.6-0.5C49.4,3.1,49.8,2.8,50.2,2.3z"/>
	<path class="st0" d="M51,8.7c0.3-0.2,0.5-0.4,0.7-0.4c0.4,0,0.7,0,1.1,0.1C53.1,8.5,53,9,52.7,9C52.2,9.2,51.6,9.4,51,8.7z"/>
	<path class="st0" d="M38.7,15c-0.2-0.1-0.3-0.1-0.3-0.2c-0.1-0.1-0.2-0.2-0.3-0.4c0.4-0.3,0.8-0.7,1.3-1c0.2-0.1,0.5,0.4,0.2,0.7
		C39.3,14.4,39,14.7,38.7,15z"/>
	<path class="st0" d="M37.6,9.1c-0.6,0-1.2,0-1.7,0c-0.2-0.7,0.2-0.8,0.7-0.8C37.3,8.2,37.4,8.3,37.6,9.1z"/>
	<path class="st0" d="M23.4,19.7c0,1.4,0,2.7,0,4.1c0,0.2,0,0.4,0,0.7c0,0.4-0.3,0.7-0.7,0.8C22.4,25.4,22,25,22,24.5
		c0-0.2,0-0.4,0-0.7c0-2.6,0-5.3,0-7.9c0-0.3,0-0.7-0.1-1c-0.1-0.5-0.3-0.7-0.9-0.7s-0.9-0.3-1-0.7c0-0.4,0.4-0.8,1-0.8
		c1.3-0.1,2.3,0.9,2.3,2.3C23.4,16.5,23.4,18.1,23.4,19.7L23.4,19.7z"/>
	<path class="st0" d="M43.9,11.6c0.2-0.1,0.5-0.2,0.7-0.3c1.3-0.2,2-0.9,2.3-2.3c0-0.1,0-0.3,0.1-0.4c0.1-0.1,0.3-0.3,0.4-0.2
		c0.1,0,0.3,0.2,0.3,0.4c0,0.1,0,0.2,0,0.3c-0.1,1.5-1.6,3-3.1,3.1c-0.3,0-0.5-0.2-0.8-0.2C43.9,11.8,43.9,11.7,43.9,11.6z"/>
	<path class="st0" d="M47.1,7c0.2,0.2,0.4,0.4,0.4,0.5c0,0.2-0.2,0.3-0.3,0.5c-0.1-0.1-0.4-0.2-0.4-0.3C46.8,7.5,47,7.3,47.1,7z"/>
</g>
</svg>
